{ "environment": [
    {
      "name": "observation_id",
      "type": "number",
      "readOnly":true
    },
    {
      "name": "session_id",
      "type": "number",
      "readOnly":true
    },
    {
      "name": "date",
      "type": "date",
      "step":"1",
      "pattern":"[0-9]{4}-[0-9]{2}-[0-9]{2}",
      "isrequired":["visual", "astro", "spectro"]
    },
    {
      "name": "observation_type",
      "type": "select",
      "defaultValue":"visual",
      "isrequired":["visual", "astro", "spectro"]
    },
    {
      "balise": "h3",
      "name": "balisePlace",
      "name_bdd":"place"
    },
    {
      "name": "latitude",
      "type": "number",
      "step": "0.01",
      "isrequired":["astro", "spectro"],
      "isrecommended": ["visual"]
      
    },
    {
      "name": "longitude",
      "type": "number",
      "step": "0.01",
      "isrequired":["astro", "spectro"],
      "isrecommended": ["visual"]
      
    },
    {
      "name": "elevation",
      "type": "number",
      "step": "0.01",
      "isrequired":["spectro"],
      "isrecommended": ["visual","astro"]
    },
    {
      "name": "main_observer",
      "type": "text",
      "isrequired":["visual", "astro", "spectro"]
    },
    {
      "name": "other_observers",
      "type": "text",
      "hide": ["astro", "spectro"]
    },
    {
      "name": "start_time",
      "type": "time",
      "defaultValue": true,
      "isrequired":["visual", "astro", "spectro"]
    },
    {
      "name": "end_time",
      "type": "time",
      "isrequired":["visual", "astro", "spectro"]
    },
    {
      "name": "time_offset",
      "type": "number",
      "isisrequired":["visual", "astro", "spectro"]
    },
    {
      "balise": "h3",
      "name": "baliseMeteo",
      "name_bdd":"meteo"
      
    },
    {
      "name": "sky_meteo",
      "type": "text"
    },
    {
      "name": "temp_meteo",
      "type": "number",
      "unit":"°C",
      "step": "0.01",
      "isrecommended": ["visual","astro","spectro"]
    },
    {
      "name": "pressure_meteo",
      "type": "number",
      "unit":"hPa",
      "step": "0.01",
      "isrecommended": ["visual","astro","spectro"]
    },
    {
      "name": "humidity_meteo",
      "type": "number",
      "unit":"%",
      "step": "0.01",
      "isrecommended": ["visual","astro","spectro"]
    },
    {
      "name": "seeing_meteo",
      "type": "number",
      "step": "1",
      "max": "9",
      "min": "1"
    }
]
}
