{
    "observation_type": [
        {
            "astro":"Photo",
            "spectro":"Spectro",
            "visual":"Visuelle"
        }
    ],
    "target_type": [
        {
            "stars":"Étoiles",
            "planets":"Planètes",
            "moon":"Lune",
            "sun":"Soleil",
            "nebulae": "Nébuleuses",
            "galaxy": "Galaxies",
            "quasars":"Quasars",
            "comets":"Comètes",
            "asteroids":"Astéroïdes",
            "exoplanets":"Exoplanètes"
        }
    ]
}