{
    "session" : {
        "message" : "Si vous créez une nouvelle session, l'actuelle ne sera plus modifiable.",
        "question" : "Êtes-vous sûr de vouloir créer une autre session ?"
    },

    "observation1" : {
        "message" : "Si vous n'avez pas sauvegardé l'observation actuelle, les données seront perdues.",
        "question" : "Êtes-vous sûr de créer une nouvelle observation ?"
    },

    "observation2" : {
        "message" : "Vous n'avez pas sauvegardé l'observation actuelle, si vous en créez une autre, l'actuelle sera perdue.",
        "question " : "Êtes-vous sûr de créer une nouvelle observation ?"
    },

    "emptyRecommanded" : {
        "message" : "Tous les champs recommandés ne sont pas remplis.",
        "question" : "Êtes-vous sûr de sauvegarder votre observation ?"
    },

    "warning" : "Attention",
    "rep1" : "Oui",
    "rep2" : "Non"

}