{
    
    "object_name":"Nombre del objeto",
    "date":"Fecha",
    "session_id":"ID de sesión",
    "all":"Todos",
    "visual":"Visual",
    "astrophoto":"Photo",
    "spectrograph":"Espectró",
    "newSession" : "Nueva Sesión", 
    "newObservation" : "Nueva Observación", 
    "settings" : "Configuraciones",
    "searchButton" : "Buscar",
    "alertButton" : "Alerta",
    "refreshButton" : "Actualizar",
    "homeButton":"Volver a la observación",
    "loadData" : "Cargar Datos",
    "verify" : "Verificar y Guardar observación", 
    "allObservation": "Obtenga toda la observación",
    "hideObservation": "Ocultar la Observación", 
    "display" : "Monitor",
    "modify" : "Monitor",
    "filter":"Filtrar",
    "type":"Tipo",
    "coords":"Coordenadas",
    "quickExport": "Exportación Rápida",
    "persoExport": "Exportación Personalizada",
    "obsResult": "Volviendo al resultado de la observación",
    "selectExport": "Exportación de la selección",
    "export": "Export",
    "import": "Import"
}