{
    "observation_type": [
        {
            "astro":"Photo",
            "spectro":"Espectro",
            "visual":"Visual"
        }
    ],
    "target_type": [
        {
            "stars":"Estrellas",
            "planets":"Planetas",
            "moon":"Luna",
            "sun":"Sol",
            "nebulae": "Nebulosas",
            "galaxy":"Galaxia",
            "quasars":"Cuásares",
            "comets":"Cometas",
            "asteroids":"Asteroides",
            "exoplanets":"Exoplanetas"
        }
    ]
}