{
    "_id":"ID",
    "environment":"Environment",
    "equipment":"Equipment",
    "acquisition":"Acquisition",
    "mount":"Mount",
    "optic_name":"Optic Name",
    "optic_aperture":"Optic Aperture",
    "optic_focal_length":"Optic Focal Length",
    "ccd_name":"CCD Name",
    "ccd_temperature":"CCD Temperature",
    "ccd_size":"CCD Diagonal Size",
    "ccd_pixel": "CCD Pixel Size",
    "ccd_bits_per_pixel":"CCD Bit Depth",
    "ccd_frame_width":"CCD Frame Width",
    "ccd_frame_height":"CCD Frame Height",
    "ccd_horizontal_binning":"CCD Horizontal Binning",
    "ccd_vertical_binning":"CCD Vertical Binning",
    "filter_list":"Filter List",
    "filter_comments":"Filter Comments",
    "optic_guide_name": "Optic Guide Name",
    "optic_guide_aperture": "Optic Guide Aperture",
    "optic_guide_focal_length": "Optic Guide Focal length",
    "ccd_guide_name": "CCD Guide Name",
    "ccd_guide_horizontal_binning": "CCD Guide Horizontal Binning",
    "ccd_guide_vertical_binning": "CCD Guide Vertical Binning",
    "ccd_guide_temp": "CCD Guide Temperature",
    "guidance_exposure": "Guidance Exposure",
    "guidance_software": "Guidance Software",
    "spectrograph": "Spectroscope",
    "spectrograph_slit_size": "Slit Size",
    "spectrograph_guiding_module": "Guiding Module",
    "spectrograph_calib_module": "Calib Module",
    "ra_target_j2000": "RA (J2000)",
    "dec_target_j2000": "DEC (J2000)",
    "object_name": "Object Name",
    "other_name": "Other Name",
    "target_type": "Type",
    "type_caracteristics": "Characteristics",
    "acquisition_software": "Acquisition Software",
    "image_count": " Target Image Count",
    "image_exposure": "Target Image Exposure",
    "image_flat_count": "Image Flat Count",
    "exposure_flat": "Exposure Flat",
    "image_dark_count": "Image Dark Count",
    "exposure_dark": "Exposure Dark",
    "exposure_offset": "Exposure Offset",
    "image_offset_count": "Image Offset Count",
    "calib_type": "Calibration Type",
    "calib_image_count": "Calib Count",
    "calib_image_exposure": "Calib Exposure",
    "ra_ref_star_j2000": "RA Ref Star (J2000)",
    "dec_ref_star_j2000": "DEC Ref Star (J2000)",
    "image_flat_count_ref_star": "Image Flat Count Ref Star",
    "exposure_flat_ref_star": "Exposure Flat Ref Star",
    "image_dark_count_ref_star": "Image Dark Count Ref Star",
    "exposure_dark_ref_star": "Exposure Dark Ref Star",
    "image_offset_count_ref_star": "Image Offset Count Ref Star",
    "exposure_offset_ref_star": "Exposure Offset Ref Star",
    "calib_type_ref_star": "Calib Type",
    "calib_count_ref_star": "Calib Count Ref Star",
    "calib_exposure_ref_star": "Calib Exposure Ref Star",
    "image_count_ref_star": "Image Count Ref Star",
    "image_exposure_ref_star": "Image Exposure Ref Star",
    "observation_comments": "Observation Comments",
    "result": "Result",
    "process_software": "Process Software",
    "result_path": "Result Path",
    "informations": "Informations",
    "url_publication": "Url Publication",
    "observation_id": "Observation ID",
    "session_id": "Session ID",
    "date": "Observation Date",
    "observation_type": "Observation Type",
    "latitude": "Latitude",
    "longitude": "Longitude",
    "elevation": "Elevation",
    "main_observer": "Main Observer",
    "other_observers": "Other Observer",
    "start_time": "Start Time (local)",
    "end_time": "End Time (local)",
    "time_offset": "Time Offset (UTC)",
    "sky_meteo": "Sky Quality",
    "temp_meteo": "Temperature",
    "pressure_meteo": "Pressure",
    "humidity_meteo": "Humidity",
    "seeing_meteo": "Seeing",
    "balisePlace": "Place",
    "baliseMeteo": "Weather",
    "baliseSpectrograph": "Spectroscope",
    "baliseGuideOptic": "Guide Optic",
    "baliseMainOptic": "Main Optic",
    "baliseRefStarCalib": "Ref Star Calib",
    "baliseRefStarOffset": "Ref Star Offset",
    "baliseRefStarDarks": "Ref Star Darks",
    "baliseRefStarFlats": "Ref Star Flats",
    "baliseReferenceStarObj": "Reference Star Object",
    "baliseTargetCalib": "Target Calibration",
    "baliseTargetOffsets": "Target Offsets",
    "baliseTargetDark": "Target Darks",
    "baliseTargetFlats": "Target Flats",
    "baliseTargetImage": "Target Image",
    "baliseTarget": "Target",
    "name_ref_star": "Star Name",
    "coords": "Coords",
    "coordsT": "Coords",
    "type_ref_star": "Star Type Ref Star",
    "spectral_type_ref_star": "Spectral Type Ref Star",
    "directory_path": "Directory Path",
    "place": "Place",
    "guide_optic": "Guide Optic",
    "main_optic": "Main Optic",
    "meteo": "Meteo",
    "ref_star_object": "Reference Star object",
    "target": "Target",
    "target_calib": "Target Calibration",
    "target_flats": "Target Flats",
    "target_dark": "Target Dark",
    "target_image": "Target Image",
    "target_offsets": "Target Offsets", 
    "target_magnitude":"Visual Magnitude",
    "ref_star_magnitude":"Visual Magnitude",

    "sessionTracker": "Your session",
    "searchObservations":"Search observations",

    "action":"Action",
    "observation":"Visual",
    "astrophoto":"Astrophoto",
    "charts1":"Repartition of observations type",
    "charts2":"Number of observations by years",
    "searchFilter":"Search...",
    "errorInput": "Error: please check your input",
    "errorMatch":"No matching result",
    "stateLoading":"LOADING...",
    "stateLoaded":"DATA LOADED",
    "errorIndiserv":"Error: No indiserver running",
    "errorRequired":"Required field empty!!!",
    "stateSaved":"Observation saved !",
    "errorSaved":"An error occur during the saving, observation NOT SAVED.",
    "stateUpdated":"Observation updated !",
    "stateLoadedCoord":"COORDINATES LOADED",
    "errorCoordNotFound":"Error: Coordinates not found",
    "errorCoordEmpty":"Error: No value in Star Name entry field ",
    "erroJSON":"Add title to json file",
    "copyDo":"Copy to clipboard",
    "copyDone":"Copied!",
    "createFile":"Create file",
    "loadingDocument":"Loading document...",
    "createPDF":"Create PDF",
    "astro":"Photo",
    "spectro":"Spectro",
    "visual":"Visual",

    "stars":"Stars",
    "planets":"Planets",
    "moon":"Moon",
    "sun":"Sun",
    "nebulae": "Nebulea",
    "galaxy":"Galaxy",
    "quasars":"Quasars",
    "comets":"Comets",
    "asteroids":"Asteroids",
    "exoplanets":"Exoplanets",
    "observationExcel":"Observation",

    "quickExport": "To export all datas",
    "persoExport": "To select datas",
    "obsResult": "To return to observation result", 
    "selectExport": "To export selected datas",

    "introduction": "Observation note :",
    "conclusion": "Observation report :",
    "alert": "Alert broker",
    "totalAlert": "Total number of alerts : ",
    "addALert": "Add/Modify alerts"
    
}