{
    "session" : {
        "message" : "If you create a new session, the current session can no longer be modified.",
        "question" : "Are you sure to create a new session ?"
    },

    "observation1" : {
        "message" : "If you have not saved the current observation, the data will be lost.",
        "question" : "Are you sure to create a new observation ?"
    },

    "observation2" : {
        "message" : "You don't have saved the current observation, if you create another one, the current will be lost.",
        "question" : "Are you sure to create a new observation ?"
    },
    
    "emptyRecommanded" : {
        "message" : "Not all recommended fields are completed.",
        "question" : "Are you sure to save your observation ?"
    },

    "warning" : "Warning !",
    "rep1" : "Yes",
    "rep2" : "No"
}